<?xml version="1.0" encoding="UTF-8" standalone="no"?>
<svg
   version="1.1"
   width="13.18997cm"
   height="5.2000709cm"
   viewBox="0 0 51929.016 20472.722"
   id="svg58463"
   sodipodi:docname="case.svg"
   inkscape:version="1.1.1 (3bf5ae0d25, 2021-09-20, custom)"
   xmlns:inkscape="http://www.inkscape.org/namespaces/inkscape"
   xmlns:sodipodi="http://sodipodi.sourceforge.net/DTD/sodipodi-0.dtd"
   xmlns="http://www.w3.org/2000/svg"
   xmlns:svg="http://www.w3.org/2000/svg"
   xmlns:rdf="http://www.w3.org/1999/02/22-rdf-syntax-ns#"
   xmlns:cc="http://creativecommons.org/ns#"
   xmlns:dc="http://purl.org/dc/elements/1.1/">
  <metadata
     id="metadata58469">
    <rdf:RDF>
      <cc:Work
         rdf:about="">
        <dc:format>image/svg+xml</dc:format>
        <dc:type
           rdf:resource="http://purl.org/dc/dcmitype/StillImage" />
        <dc:title>SVG Picture created as co2-sensor-F_Cu.svg date 2022/01/17 17:15:34 </dc:title>
      </cc:Work>
    </rdf:RDF>
  </metadata>
  <defs
     id="defs58467" />
  <sodipodi:namedview
     pagecolor="#ffffff"
     bordercolor="#666666"
     borderopacity="1"
     objecttolerance="10"
     gridtolerance="10"
     guidetolerance="10"
     inkscape:pageopacity="0"
     inkscape:pageshadow="2"
     inkscape:window-width="1920"
     inkscape:window-height="1023"
     id="namedview58465"
     showgrid="false"
     inkscape:document-units="mm"
     inkscape:snap-object-midpoints="true"
     inkscape:snap-center="true"
     inkscape:zoom="2.1308891"
     inkscape:cx="220.09592"
     inkscape:cy="76.963179"
     inkscape:window-x="0"
     inkscape:window-y="29"
     inkscape:window-maximized="1"
     inkscape:current-layer="svg58463"
     inkscape:snap-bbox="true"
     inkscape:bbox-nodes="true"
     inkscape:object-paths="true"
     inkscape:snap-smooth-nodes="true"
     inkscape:pagecheckerboard="0" />
  <title
     id="title56769">SVG Picture created as co2-sensor-F_Cu.svg date 2022/01/17 17:15:34 </title>
  <desc
     id="desc56771">Picture generated by PCBNEW </desc>
  <g
     style="fill:#000000;fill-opacity:1;stroke:#0000ff;stroke-width:39.37007904;stroke-linecap:round;stroke-linejoin:round;stroke-miterlimit:4;stroke-dasharray:none;stroke-opacity:1"
     id="g56773"
     transform="matrix(-1,0,0,1,66166.131,14571.814)" />
  <g
     style="fill:#000000;fill-opacity:0;stroke:#0000ff;stroke-width:39.37007904;stroke-linecap:round;stroke-linejoin:round;stroke-miterlimit:4;stroke-dasharray:none;stroke-opacity:1"
     id="g56775"
     transform="matrix(-1,0,0,1,66166.131,14571.814)" />
  <g
     style="fill:#000000;fill-opacity:0;stroke:#0000ff;stroke-width:39.37007904;stroke-linecap:round;stroke-linejoin:round;stroke-miterlimit:4;stroke-dasharray:none;stroke-opacity:1"
     id="g56777"
     transform="matrix(-1,0,0,1,66166.131,14571.814)" />
  <g
     style="fill:#000000;fill-opacity:0;stroke:#0000ff;stroke-width:39.37007904;stroke-linecap:round;stroke-linejoin:round;stroke-miterlimit:4;stroke-dasharray:none;stroke-opacity:1"
     id="g56783"
     transform="matrix(-1,0,0,1,66166.131,14571.814)" />
  <g
     style="fill:#000000;fill-opacity:0;stroke:#0000ff;stroke-width:39.37007904;stroke-linecap:round;stroke-linejoin:round;stroke-miterlimit:4;stroke-dasharray:none;stroke-opacity:1"
     id="g56789"
     transform="matrix(-1,0,0,1,66166.131,14571.814)" />
  <g
     style="fill:#000000;fill-opacity:0;stroke:#0000ff;stroke-width:39.37007904;stroke-linecap:round;stroke-linejoin:round;stroke-miterlimit:4;stroke-dasharray:none;stroke-opacity:1"
     id="g56795"
     transform="matrix(-1,0,0,1,66166.131,14571.814)" />
  <g
     style="fill:#000000;fill-opacity:0;stroke:#0000ff;stroke-width:39.37007904;stroke-linecap:round;stroke-linejoin:round;stroke-miterlimit:4;stroke-dasharray:none;stroke-opacity:1"
     id="g56801"
     transform="matrix(-1,0,0,1,66166.131,14571.814)" />
  <g
     style="fill:#000000;fill-opacity:0;stroke:#0000ff;stroke-width:39.37007904;stroke-linecap:round;stroke-linejoin:round;stroke-miterlimit:4;stroke-dasharray:none;stroke-opacity:1"
     id="g56807"
     transform="matrix(-1,0,0,1,66166.131,14571.814)" />
  <g
     style="fill:#000000;fill-opacity:0;stroke:#0000ff;stroke-width:39.37007904;stroke-linecap:round;stroke-linejoin:round;stroke-miterlimit:4;stroke-dasharray:none;stroke-opacity:1"
     id="g56813"
     transform="matrix(-1,0,0,1,66166.131,14571.814)" />
  <g
     style="fill:#000000;fill-opacity:0;stroke:#0000ff;stroke-width:39.37007904;stroke-linecap:round;stroke-linejoin:round;stroke-miterlimit:4;stroke-dasharray:none;stroke-opacity:1"
     id="g56819"
     transform="matrix(-1,0,0,1,66166.131,14571.814)" />
  <g
     style="fill:#000000;fill-opacity:0;stroke:#0000ff;stroke-width:39.37007904;stroke-linecap:round;stroke-linejoin:round;stroke-miterlimit:4;stroke-dasharray:none;stroke-opacity:1"
     id="g56825"
     transform="matrix(-1,0,0,1,66166.131,14571.814)" />
  <g
     style="fill:#000000;fill-opacity:0;stroke:#0000ff;stroke-width:39.37007904;stroke-linecap:round;stroke-linejoin:round;stroke-miterlimit:4;stroke-dasharray:none;stroke-opacity:1"
     id="g56835"
     transform="matrix(-1,0,0,1,66166.131,14571.814)" />
  <g
     style="fill:#000000;fill-opacity:0;stroke:#0000ff;stroke-width:39.37007904;stroke-linecap:round;stroke-linejoin:round;stroke-miterlimit:4;stroke-dasharray:none;stroke-opacity:1"
     id="g56843"
     transform="matrix(-1,0,0,1,66166.131,14571.814)" />
  <g
     style="fill:#000000;fill-opacity:0;stroke:#0000ff;stroke-width:39.37007904;stroke-linecap:round;stroke-linejoin:round;stroke-miterlimit:4;stroke-dasharray:none;stroke-opacity:1"
     id="g56851"
     transform="matrix(-1,0,0,1,66166.131,14571.814)" />
  <g
     style="fill:#000000;fill-opacity:0;stroke:#0000ff;stroke-width:39.37007904;stroke-linecap:round;stroke-linejoin:round;stroke-miterlimit:4;stroke-dasharray:none;stroke-opacity:1"
     id="g56861"
     transform="matrix(-1,0,0,1,66166.131,14571.814)" />
  <g
     style="fill:#000000;fill-opacity:0;stroke:#0000ff;stroke-width:39.37007904;stroke-linecap:round;stroke-linejoin:round;stroke-miterlimit:4;stroke-dasharray:none;stroke-opacity:1"
     id="g56869"
     transform="matrix(-1,0,0,1,66166.131,14571.814)" />
  <g
     style="fill:#000000;fill-opacity:0;stroke:#0000ff;stroke-width:39.37007904;stroke-linecap:round;stroke-linejoin:round;stroke-miterlimit:4;stroke-dasharray:none;stroke-opacity:1"
     id="g56877"
     transform="matrix(-1,0,0,1,66166.131,14571.814)" />
  <g
     style="fill:#000000;fill-opacity:0;stroke:#0000ff;stroke-width:39.37007904;stroke-linecap:round;stroke-linejoin:round;stroke-miterlimit:4;stroke-dasharray:none;stroke-opacity:1"
     id="g56883"
     transform="matrix(-1,0,0,1,66166.131,14571.814)" />
  <g
     style="fill:#000000;fill-opacity:0;stroke:#0000ff;stroke-width:39.37007904;stroke-linecap:round;stroke-linejoin:round;stroke-miterlimit:4;stroke-dasharray:none;stroke-opacity:1"
     id="g56889"
     transform="matrix(-1,0,0,1,66166.131,14571.814)" />
  <g
     style="fill:#000000;fill-opacity:0;stroke:#0000ff;stroke-width:39.37007904;stroke-linecap:round;stroke-linejoin:round;stroke-miterlimit:4;stroke-dasharray:none;stroke-opacity:1"
     id="g56895"
     transform="matrix(-1,0,0,1,66166.131,14571.814)" />
  <g
     style="fill:#000000;fill-opacity:0;stroke:#0000ff;stroke-width:39.37007904;stroke-linecap:round;stroke-linejoin:round;stroke-miterlimit:4;stroke-dasharray:none;stroke-opacity:1"
     id="g56901"
     transform="matrix(-1,0,0,1,66166.131,14571.814)" />
  <g
     style="fill:#000000;fill-opacity:0;stroke:#0000ff;stroke-width:39.37007904;stroke-linecap:round;stroke-linejoin:round;stroke-miterlimit:4;stroke-dasharray:none;stroke-opacity:1"
     id="g56907"
     transform="matrix(-1,0,0,1,66166.131,14571.814)" />
  <g
     style="fill:#000000;fill-opacity:0;stroke:#0000ff;stroke-width:39.37007904;stroke-linecap:round;stroke-linejoin:round;stroke-miterlimit:4;stroke-dasharray:none;stroke-opacity:1"
     id="g56917"
     transform="matrix(-1,0,0,1,66166.131,14571.814)" />
  <g
     style="fill:#000000;fill-opacity:0;stroke:#0000ff;stroke-width:39.37007904;stroke-linecap:round;stroke-linejoin:round;stroke-miterlimit:4;stroke-dasharray:none;stroke-opacity:1"
     id="g56925"
     transform="matrix(-1,0,0,1,66166.131,14571.814)" />
  <g
     style="fill:#000000;fill-opacity:0;stroke:#0000ff;stroke-width:39.37007904;stroke-linecap:round;stroke-linejoin:round;stroke-miterlimit:4;stroke-dasharray:none;stroke-opacity:1"
     id="g56933"
     transform="matrix(-1,0,0,1,66166.131,14571.814)" />
  <g
     style="fill:#000000;fill-opacity:0;stroke:#0000ff;stroke-width:39.37007904;stroke-linecap:round;stroke-linejoin:round;stroke-miterlimit:4;stroke-dasharray:none;stroke-opacity:1"
     id="g56943"
     transform="matrix(-1,0,0,1,66166.131,14571.814)" />
  <g
     style="fill:#000000;fill-opacity:0;stroke:#0000ff;stroke-width:39.37007904;stroke-linecap:round;stroke-linejoin:round;stroke-miterlimit:4;stroke-dasharray:none;stroke-opacity:1"
     id="g56951"
     transform="matrix(-1,0,0,1,66166.131,14571.814)" />
  <g
     style="fill:#000000;fill-opacity:0;stroke:#0000ff;stroke-width:39.37007904;stroke-linecap:round;stroke-linejoin:round;stroke-miterlimit:4;stroke-dasharray:none;stroke-opacity:1"
     id="g56959"
     transform="matrix(-1,0,0,1,66166.131,14571.814)" />
  <g
     style="fill:#000000;fill-opacity:0;stroke:#0000ff;stroke-width:39.37007904;stroke-linecap:round;stroke-linejoin:round;stroke-miterlimit:4;stroke-dasharray:none;stroke-opacity:1"
     id="g56965"
     transform="matrix(-1,0,0,1,66166.131,14571.814)" />
  <g
     style="fill:#000000;fill-opacity:0;stroke:#0000ff;stroke-width:39.37007904;stroke-linecap:round;stroke-linejoin:round;stroke-miterlimit:4;stroke-dasharray:none;stroke-opacity:1"
     id="g56971"
     transform="matrix(-1,0,0,1,66166.131,14571.814)" />
  <g
     style="fill:#000000;fill-opacity:0;stroke:#0000ff;stroke-width:39.37007904;stroke-linecap:round;stroke-linejoin:round;stroke-miterlimit:4;stroke-dasharray:none;stroke-opacity:1"
     id="g56977"
     transform="matrix(-1,0,0,1,66166.131,14571.814)" />
  <g
     style="fill:#000000;fill-opacity:0;stroke:#0000ff;stroke-width:39.37007904;stroke-linecap:round;stroke-linejoin:round;stroke-miterlimit:4;stroke-dasharray:none;stroke-opacity:1"
     id="g56987"
     transform="matrix(-1,0,0,1,66166.131,14571.814)" />
  <g
     style="fill:#000000;fill-opacity:0;stroke:#0000ff;stroke-width:39.37007904;stroke-linecap:round;stroke-linejoin:round;stroke-miterlimit:4;stroke-dasharray:none;stroke-opacity:1"
     id="g56995"
     transform="matrix(-1,0,0,1,66166.131,14571.814)" />
  <g
     style="fill:#000000;fill-opacity:0;stroke:#0000ff;stroke-width:39.37007904;stroke-linecap:round;stroke-linejoin:round;stroke-miterlimit:4;stroke-dasharray:none;stroke-opacity:1"
     id="g57003"
     transform="matrix(-1,0,0,1,66166.131,14571.814)" />
  <g
     style="fill:#000000;fill-opacity:0;stroke:#0000ff;stroke-width:39.37007904;stroke-linecap:round;stroke-linejoin:round;stroke-miterlimit:4;stroke-dasharray:none;stroke-opacity:1"
     id="g57011"
     transform="matrix(-1,0,0,1,66166.131,14571.814)" />
  <g
     style="fill:#000000;fill-opacity:0;stroke:#0000ff;stroke-width:39.37007904;stroke-linecap:round;stroke-linejoin:round;stroke-miterlimit:4;stroke-dasharray:none;stroke-opacity:1"
     id="g57017"
     transform="matrix(-1,0,0,1,66166.131,14571.814)" />
  <g
     style="fill:#000000;fill-opacity:0;stroke:#0000ff;stroke-width:39.37007904;stroke-linecap:round;stroke-linejoin:round;stroke-miterlimit:4;stroke-dasharray:none;stroke-opacity:1"
     id="g57023"
     transform="matrix(-1,0,0,1,66166.131,14571.814)" />
  <g
     style="fill:#000000;fill-opacity:0;stroke:#0000ff;stroke-width:39.37007904;stroke-linecap:round;stroke-linejoin:round;stroke-miterlimit:4;stroke-dasharray:none;stroke-opacity:1"
     id="g57029"
     transform="matrix(-1,0,0,1,66166.131,14571.814)" />
  <g
     style="fill:#000000;fill-opacity:0;stroke:#0000ff;stroke-width:39.37007904;stroke-linecap:round;stroke-linejoin:round;stroke-miterlimit:4;stroke-dasharray:none;stroke-opacity:1"
     id="g57039"
     transform="matrix(-1,0,0,1,66166.131,14571.814)" />
  <g
     style="fill:#000000;fill-opacity:0;stroke:#0000ff;stroke-width:39.37007904;stroke-linecap:round;stroke-linejoin:round;stroke-miterlimit:4;stroke-dasharray:none;stroke-opacity:1"
     id="g57047"
     transform="matrix(-1,0,0,1,66166.131,14571.814)" />
  <g
     style="fill:#000000;fill-opacity:0;stroke:#0000ff;stroke-width:39.37007904;stroke-linecap:round;stroke-linejoin:round;stroke-miterlimit:4;stroke-dasharray:none;stroke-opacity:1"
     id="g57055"
     transform="matrix(-1,0,0,1,66166.131,14571.814)" />
  <g
     style="fill:#000000;fill-opacity:0;stroke:#0000ff;stroke-width:39.37007904;stroke-linecap:round;stroke-linejoin:round;stroke-miterlimit:4;stroke-dasharray:none;stroke-opacity:1"
     id="g57063"
     transform="matrix(-1,0,0,1,66166.131,14571.814)" />
  <g
     style="fill:#000000;fill-opacity:0;stroke:#0000ff;stroke-width:39.37007904;stroke-linecap:round;stroke-linejoin:round;stroke-miterlimit:4;stroke-dasharray:none;stroke-opacity:1"
     id="g57109"
     transform="matrix(-1,0,0,1,66166.131,14571.814)" />
  <g
     style="fill:#000000;fill-opacity:0;stroke:#0000ff;stroke-width:39.37007904;stroke-linecap:round;stroke-linejoin:round;stroke-miterlimit:4;stroke-dasharray:none;stroke-opacity:1"
     id="g57115"
     transform="matrix(-1,0,0,1,66166.131,14571.814)" />
  <g
     style="fill:#000000;fill-opacity:0;stroke:#0000ff;stroke-width:39.37007904;stroke-linecap:round;stroke-linejoin:round;stroke-miterlimit:4;stroke-dasharray:none;stroke-opacity:1"
     id="g57275"
     transform="matrix(-1,0,0,1,66166.131,14571.814)" />
  <g
     style="fill:#000000;fill-opacity:0;stroke:#0000ff;stroke-width:39.37007904;stroke-linecap:round;stroke-linejoin:round;stroke-miterlimit:4;stroke-dasharray:none;stroke-opacity:1"
     id="g57281"
     transform="matrix(-1,0,0,1,66166.131,14571.814)" />
  <g
     style="fill:#000000;fill-opacity:0;stroke:#0000ff;stroke-width:39.37007904;stroke-linecap:round;stroke-linejoin:round;stroke-miterlimit:4;stroke-dasharray:none;stroke-opacity:1"
     id="g57299"
     transform="matrix(-1,0,0,1,66166.131,14571.814)" />
  <g
     style="fill:#000000;fill-opacity:0;stroke:#0000ff;stroke-width:39.37007904;stroke-linecap:round;stroke-linejoin:round;stroke-miterlimit:4;stroke-dasharray:none;stroke-opacity:1"
     id="g57327"
     transform="matrix(-1,0,0,1,66166.131,14571.814)" />
  <g
     style="fill:#000000;fill-opacity:0;stroke:#0000ff;stroke-width:39.37007904;stroke-linecap:round;stroke-linejoin:round;stroke-miterlimit:4;stroke-dasharray:none;stroke-opacity:1"
     id="g57353"
     transform="matrix(-1,0,0,1,66166.131,14571.814)" />
  <g
     style="fill:#000000;fill-opacity:0;stroke:#0000ff;stroke-width:39.37007904;stroke-linecap:round;stroke-linejoin:round;stroke-miterlimit:4;stroke-dasharray:none;stroke-opacity:1"
     id="g57359"
     transform="matrix(-1,0,0,1,66166.131,14571.814)" />
  <g
     style="fill:#000000;fill-opacity:0;stroke:#0000ff;stroke-width:39.37007904;stroke-linecap:round;stroke-linejoin:round;stroke-miterlimit:4;stroke-dasharray:none;stroke-opacity:1"
     id="g57429"
     transform="matrix(-1,0,0,1,66166.131,14571.814)" />
  <g
     style="fill:#000000;fill-opacity:0;stroke:#0000ff;stroke-width:39.37007904;stroke-linecap:round;stroke-linejoin:round;stroke-miterlimit:4;stroke-dasharray:none;stroke-opacity:1"
     id="g57509"
     transform="matrix(-1,0,0,1,66166.131,14571.814)" />
  <g
     style="fill:#000000;fill-opacity:0;stroke:#0000ff;stroke-width:39.37007904;stroke-linecap:round;stroke-linejoin:round;stroke-miterlimit:4;stroke-dasharray:none;stroke-opacity:1"
     id="g57515"
     transform="matrix(-1,0,0,1,66166.131,14571.814)" />
  <g
     style="fill:#000000;fill-opacity:0;stroke:#0000ff;stroke-width:39.37007904;stroke-linecap:round;stroke-linejoin:round;stroke-miterlimit:4;stroke-dasharray:none;stroke-opacity:1"
     id="g57539"
     transform="matrix(-1,0,0,1,66166.131,14571.814)" />
  <g
     style="fill:#000000;fill-opacity:0;stroke:#0000ff;stroke-width:39.37007904;stroke-linecap:round;stroke-linejoin:round;stroke-miterlimit:4;stroke-dasharray:none;stroke-opacity:1"
     id="g57587"
     transform="matrix(-1,0,0,1,66166.131,14571.814)" />
  <g
     style="fill:#000000;fill-opacity:0;stroke:#0000ff;stroke-width:39.37007904;stroke-linecap:round;stroke-linejoin:round;stroke-miterlimit:4;stroke-dasharray:none;stroke-opacity:1"
     id="g57593"
     transform="matrix(-1,0,0,1,66166.131,14571.814)" />
  <g
     style="fill:#ffffff;fill-opacity:1;stroke:#0000ff;stroke-width:39.37007904;stroke-linecap:round;stroke-linejoin:round;stroke-miterlimit:4;stroke-dasharray:none;stroke-opacity:1"
     id="g58093"
     transform="matrix(-1,0,0,1,66166.131,14571.814)" />
  <g
     style="fill:#ffffff;fill-opacity:1;stroke:#0000ff;stroke-width:39.37007904;stroke-linecap:round;stroke-linejoin:round;stroke-miterlimit:4;stroke-dasharray:none;stroke-opacity:1"
     id="g58099"
     transform="matrix(-1,0,0,1,66166.131,14571.814)" />
  <g
     style="fill:#ffffff;fill-opacity:1;stroke:#0000ff;stroke-width:39.37007904;stroke-linecap:round;stroke-linejoin:round;stroke-miterlimit:4;stroke-dasharray:none;stroke-opacity:1"
     id="g58105"
     transform="matrix(-1,0,0,1,66166.131,14571.814)" />
  <g
     style="fill:#ffffff;fill-opacity:1;stroke:#0000ff;stroke-width:39.37007904;stroke-linecap:round;stroke-linejoin:round;stroke-miterlimit:4;stroke-dasharray:none;stroke-opacity:1"
     id="g58111"
     transform="matrix(-1,0,0,1,66166.131,14571.814)" />
  <g
     style="fill:#ffffff;fill-opacity:1;stroke:#0000ff;stroke-width:39.37007904;stroke-linecap:round;stroke-linejoin:round;stroke-miterlimit:4;stroke-dasharray:none;stroke-opacity:1"
     id="g58117"
     transform="matrix(-1,0,0,1,66166.131,14571.814)" />
  <g
     style="fill:#ffffff;fill-opacity:1;stroke:#0000ff;stroke-width:39.37007904;stroke-linecap:round;stroke-linejoin:round;stroke-miterlimit:4;stroke-dasharray:none;stroke-opacity:1"
     id="g58123"
     transform="matrix(-1,0,0,1,66166.131,14571.814)" />
  <g
     style="fill:#ffffff;fill-opacity:1;stroke:#0000ff;stroke-width:39.37007904;stroke-linecap:round;stroke-linejoin:round;stroke-miterlimit:4;stroke-dasharray:none;stroke-opacity:1"
     id="g58129"
     transform="matrix(-1,0,0,1,66166.131,14571.814)" />
  <g
     style="fill:#ffffff;fill-opacity:1;stroke:#0000ff;stroke-width:39.37007904;stroke-linecap:round;stroke-linejoin:round;stroke-miterlimit:4;stroke-dasharray:none;stroke-opacity:1"
     id="g58135"
     transform="matrix(-1,0,0,1,66166.131,14571.814)" />
  <g
     style="fill:#ffffff;fill-opacity:1;stroke:#0000ff;stroke-width:39.37007904;stroke-linecap:round;stroke-linejoin:round;stroke-miterlimit:4;stroke-dasharray:none;stroke-opacity:1"
     id="g58141"
     transform="matrix(-1,0,0,1,66166.131,14571.814)" />
  <g
     style="fill:#ffffff;fill-opacity:1;stroke:#0000ff;stroke-width:39.37007904;stroke-linecap:round;stroke-linejoin:round;stroke-miterlimit:4;stroke-dasharray:none;stroke-opacity:1"
     id="g58147"
     transform="matrix(-1,0,0,1,66166.131,14571.814)" />
  <g
     style="fill:#ffffff;fill-opacity:1;stroke:#0000ff;stroke-width:39.37007904;stroke-linecap:round;stroke-linejoin:round;stroke-miterlimit:4;stroke-dasharray:none;stroke-opacity:1"
     id="g58153"
     transform="matrix(-1,0,0,1,66166.131,14571.814)" />
  <g
     style="fill:#ffffff;fill-opacity:1;stroke:#0000ff;stroke-width:39.37007904;stroke-linecap:round;stroke-linejoin:round;stroke-miterlimit:4;stroke-dasharray:none;stroke-opacity:1"
     id="g58159"
     transform="matrix(-1,0,0,1,66166.131,14571.814)" />
  <g
     style="fill:#ffffff;fill-opacity:1;stroke:#0000ff;stroke-width:39.37007904;stroke-linecap:round;stroke-linejoin:round;stroke-miterlimit:4;stroke-dasharray:none;stroke-opacity:1"
     id="g58165"
     transform="matrix(-1,0,0,1,66166.131,14571.814)" />
  <g
     style="fill:#ffffff;fill-opacity:1;stroke:#0000ff;stroke-width:39.37007904;stroke-linecap:round;stroke-linejoin:round;stroke-miterlimit:4;stroke-dasharray:none;stroke-opacity:1"
     id="g58171"
     transform="matrix(-1,0,0,1,66166.131,14571.814)" />
  <g
     style="fill:#ffffff;fill-opacity:1;stroke:#0000ff;stroke-width:39.37007904;stroke-linecap:round;stroke-linejoin:round;stroke-miterlimit:4;stroke-dasharray:none;stroke-opacity:1"
     id="g58177"
     transform="matrix(-1,0,0,1,66166.131,14571.814)" />
  <g
     style="fill:#ffffff;fill-opacity:1;stroke:#0000ff;stroke-width:39.37007904;stroke-linecap:round;stroke-linejoin:round;stroke-miterlimit:4;stroke-dasharray:none;stroke-opacity:1"
     id="g58183"
     transform="matrix(-1,0,0,1,66166.131,14571.814)" />
  <g
     style="fill:#ffffff;fill-opacity:1;stroke:#0000ff;stroke-width:39.37007904;stroke-linecap:round;stroke-linejoin:round;stroke-miterlimit:4;stroke-dasharray:none;stroke-opacity:1"
     id="g58189"
     transform="matrix(-1,0,0,1,66166.131,14571.814)" />
  <g
     style="fill:#ffffff;fill-opacity:1;stroke:#0000ff;stroke-width:39.37007904;stroke-linecap:round;stroke-linejoin:round;stroke-miterlimit:4;stroke-dasharray:none;stroke-opacity:1"
     id="g58195"
     transform="matrix(-1,0,0,1,66166.131,14571.814)" />
  <g
     style="fill:#ffffff;fill-opacity:1;stroke:#0000ff;stroke-width:39.37007904;stroke-linecap:round;stroke-linejoin:round;stroke-miterlimit:4;stroke-dasharray:none;stroke-opacity:1"
     id="g58201"
     transform="matrix(-1,0,0,1,66166.131,14571.814)" />
  <g
     style="fill:#ffffff;fill-opacity:1;stroke:#0000ff;stroke-width:39.37007904;stroke-linecap:round;stroke-linejoin:round;stroke-miterlimit:4;stroke-dasharray:none;stroke-opacity:1"
     id="g58207"
     transform="matrix(-1,0,0,1,66166.131,14571.814)" />
  <g
     style="fill:#ffffff;fill-opacity:1;stroke:#0000ff;stroke-width:39.37007904;stroke-linecap:round;stroke-linejoin:round;stroke-miterlimit:4;stroke-dasharray:none;stroke-opacity:1"
     id="g58213"
     transform="matrix(-1,0,0,1,66166.131,14571.814)" />
  <g
     style="fill:#ffffff;fill-opacity:1;stroke:#0000ff;stroke-width:39.37007904;stroke-linecap:round;stroke-linejoin:round;stroke-miterlimit:4;stroke-dasharray:none;stroke-opacity:1"
     id="g58219"
     transform="matrix(-1,0,0,1,66166.131,14571.814)" />
  <g
     style="fill:#ffffff;fill-opacity:1;stroke:#0000ff;stroke-width:39.37007904;stroke-linecap:round;stroke-linejoin:round;stroke-miterlimit:4;stroke-dasharray:none;stroke-opacity:1"
     id="g58225"
     transform="matrix(-1,0,0,1,66166.131,14571.814)" />
  <g
     style="fill:#ffffff;fill-opacity:1;stroke:#0000ff;stroke-width:39.37007904;stroke-linecap:round;stroke-linejoin:round;stroke-miterlimit:4;stroke-dasharray:none;stroke-opacity:1"
     id="g58231"
     transform="matrix(-1,0,0,1,66166.131,14571.814)" />
  <g
     style="fill:#ffffff;fill-opacity:1;stroke:#0000ff;stroke-width:39.37007904;stroke-linecap:round;stroke-linejoin:round;stroke-miterlimit:4;stroke-dasharray:none;stroke-opacity:1"
     id="g58237"
     transform="matrix(-1,0,0,1,66166.131,14571.814)" />
  <g
     style="fill:#ffffff;fill-opacity:1;stroke:#0000ff;stroke-width:39.37007904;stroke-linecap:round;stroke-linejoin:round;stroke-miterlimit:4;stroke-dasharray:none;stroke-opacity:1"
     id="g58243"
     transform="matrix(-1,0,0,1,66166.131,14571.814)" />
  <g
     style="fill:#ffffff;fill-opacity:1;stroke:#0000ff;stroke-width:39.37007904;stroke-linecap:round;stroke-linejoin:round;stroke-miterlimit:4;stroke-dasharray:none;stroke-opacity:1"
     id="g58249"
     transform="matrix(-1,0,0,1,66166.131,14571.814)" />
  <g
     style="fill:#ffffff;fill-opacity:1;stroke:#0000ff;stroke-width:39.37007904;stroke-linecap:round;stroke-linejoin:round;stroke-miterlimit:4;stroke-dasharray:none;stroke-opacity:1"
     id="g58255"
     transform="matrix(-1,0,0,1,66166.131,14571.814)" />
  <g
     style="fill:#ffffff;fill-opacity:1;stroke:#0000ff;stroke-width:39.37007904;stroke-linecap:round;stroke-linejoin:round;stroke-miterlimit:4;stroke-dasharray:none;stroke-opacity:1"
     id="g58261"
     transform="matrix(-1,0,0,1,66166.131,14571.814)" />
  <g
     style="fill:#ffffff;fill-opacity:1;stroke:#0000ff;stroke-width:39.37007904;stroke-linecap:round;stroke-linejoin:round;stroke-miterlimit:4;stroke-dasharray:none;stroke-opacity:1"
     id="g58267"
     transform="matrix(-1,0,0,1,66166.131,14571.814)" />
  <g
     style="fill:#ffffff;fill-opacity:1;stroke:#0000ff;stroke-width:39.37007904;stroke-linecap:round;stroke-linejoin:round;stroke-miterlimit:4;stroke-dasharray:none;stroke-opacity:1"
     id="g58273"
     transform="matrix(-1,0,0,1,66166.131,14571.814)" />
  <g
     style="fill:#ffffff;fill-opacity:1;stroke:#0000ff;stroke-width:39.37007904;stroke-linecap:round;stroke-linejoin:round;stroke-miterlimit:4;stroke-dasharray:none;stroke-opacity:1"
     id="g58279"
     transform="matrix(-1,0,0,1,66166.131,14571.814)" />
  <g
     style="fill:#ffffff;fill-opacity:1;stroke:#0000ff;stroke-width:39.37007904;stroke-linecap:round;stroke-linejoin:round;stroke-miterlimit:4;stroke-dasharray:none;stroke-opacity:1"
     id="g58285"
     transform="matrix(-1,0,0,1,66166.131,14571.814)" />
  <g
     style="fill:#ffffff;fill-opacity:1;stroke:#0000ff;stroke-width:39.37007904;stroke-linecap:round;stroke-linejoin:round;stroke-miterlimit:4;stroke-dasharray:none;stroke-opacity:1"
     id="g58291"
     transform="matrix(-1,0,0,1,66166.131,14571.814)" />
  <g
     style="fill:#ffffff;fill-opacity:1;stroke:#0000ff;stroke-width:39.37007904;stroke-linecap:round;stroke-linejoin:round;stroke-miterlimit:4;stroke-dasharray:none;stroke-opacity:1"
     id="g58297"
     transform="matrix(-1,0,0,1,66166.131,14571.814)" />
  <g
     style="fill:#ffffff;fill-opacity:1;stroke:#0000ff;stroke-width:39.37007904;stroke-linecap:round;stroke-linejoin:round;stroke-miterlimit:4;stroke-dasharray:none;stroke-opacity:1"
     id="g58303"
     transform="matrix(-1,0,0,1,66166.131,14571.814)" />
  <g
     style="fill:#ffffff;fill-opacity:1;stroke:#0000ff;stroke-width:39.37007904;stroke-linecap:round;stroke-linejoin:round;stroke-miterlimit:4;stroke-dasharray:none;stroke-opacity:1"
     id="g58309"
     transform="matrix(-1,0,0,1,66166.131,14571.814)" />
  <g
     style="fill:#ffffff;fill-opacity:1;stroke:#0000ff;stroke-width:39.37007904;stroke-linecap:round;stroke-linejoin:round;stroke-miterlimit:4;stroke-dasharray:none;stroke-opacity:1"
     id="g58315"
     transform="matrix(-1,0,0,1,66166.131,14571.814)" />
  <g
     style="fill:#ffffff;fill-opacity:1;stroke:#0000ff;stroke-width:39.37007904;stroke-linecap:round;stroke-linejoin:round;stroke-miterlimit:4;stroke-dasharray:none;stroke-opacity:1"
     id="g58321"
     transform="matrix(-1,0,0,1,66166.131,14571.814)" />
  <g
     style="fill:#ffffff;fill-opacity:1;stroke:#0000ff;stroke-width:39.37007904;stroke-linecap:round;stroke-linejoin:round;stroke-miterlimit:4;stroke-dasharray:none;stroke-opacity:1"
     id="g58327"
     transform="matrix(-1,0,0,1,66166.131,14571.814)" />
  <g
     style="fill:#ffffff;fill-opacity:1;stroke:#0000ff;stroke-width:39.37007904;stroke-linecap:round;stroke-linejoin:round;stroke-miterlimit:4;stroke-dasharray:none;stroke-opacity:1"
     id="g58333"
     transform="matrix(-1,0,0,1,66166.131,14571.814)" />
  <g
     style="fill:#ffffff;fill-opacity:1;stroke:#0000ff;stroke-width:39.37007904;stroke-linecap:round;stroke-linejoin:round;stroke-miterlimit:4;stroke-dasharray:none;stroke-opacity:1"
     id="g58339"
     transform="matrix(-1,0,0,1,66166.131,14571.814)" />
  <g
     style="fill:#ffffff;fill-opacity:1;stroke:#0000ff;stroke-width:39.37007904;stroke-linecap:round;stroke-linejoin:round;stroke-miterlimit:4;stroke-dasharray:none;stroke-opacity:1"
     id="g58345"
     transform="matrix(-1,0,0,1,66166.131,14571.814)" />
  <g
     style="fill:#ffffff;fill-opacity:1;stroke:#0000ff;stroke-width:39.37007904;stroke-linecap:round;stroke-linejoin:round;stroke-miterlimit:4;stroke-dasharray:none;stroke-opacity:1"
     id="g58351"
     transform="matrix(-1,0,0,1,66166.131,14571.814)" />
  <g
     style="fill:#ffffff;fill-opacity:1;stroke:#0000ff;stroke-width:39.37007904;stroke-linecap:round;stroke-linejoin:round;stroke-miterlimit:4;stroke-dasharray:none;stroke-opacity:1"
     id="g58357"
     transform="matrix(-1,0,0,1,66166.131,14571.814)" />
  <g
     style="fill:#ffffff;fill-opacity:1;stroke:#0000ff;stroke-width:39.37007904;stroke-linecap:round;stroke-linejoin:round;stroke-miterlimit:4;stroke-dasharray:none;stroke-opacity:1"
     id="g58363"
     transform="matrix(-1,0,0,1,66166.131,14571.814)" />
  <g
     style="fill:#ffffff;fill-opacity:1;stroke:#0000ff;stroke-width:39.37007904;stroke-linecap:round;stroke-linejoin:round;stroke-miterlimit:4;stroke-dasharray:none;stroke-opacity:1"
     id="g58369"
     transform="matrix(-1,0,0,1,66166.131,14571.814)" />
  <g
     style="fill:#ffffff;fill-opacity:1;stroke:#0000ff;stroke-width:39.37007904;stroke-linecap:round;stroke-linejoin:round;stroke-miterlimit:4;stroke-dasharray:none;stroke-opacity:1"
     id="g58375"
     transform="matrix(-1,0,0,1,66166.131,14571.814)" />
  <g
     style="fill:#ffffff;fill-opacity:1;stroke:#0000ff;stroke-width:39.37007904;stroke-linecap:round;stroke-linejoin:round;stroke-miterlimit:4;stroke-dasharray:none;stroke-opacity:1"
     id="g58381"
     transform="matrix(-1,0,0,1,66166.131,14571.814)" />
  <g
     style="fill:#ffffff;fill-opacity:1;stroke:#0000ff;stroke-width:39.37007904;stroke-linecap:round;stroke-linejoin:round;stroke-miterlimit:4;stroke-dasharray:none;stroke-opacity:1"
     id="g58387"
     transform="matrix(-1,0,0,1,66166.131,14571.814)" />
  <g
     style="fill:#ffffff;fill-opacity:1;stroke:#0000ff;stroke-width:39.37007904;stroke-linecap:round;stroke-linejoin:round;stroke-miterlimit:4;stroke-dasharray:none;stroke-opacity:1"
     id="g58393"
     transform="matrix(-1,0,0,1,66166.131,14571.814)" />
  <g
     style="fill:#ffffff;fill-opacity:1;stroke:#0000ff;stroke-width:39.37007904;stroke-linecap:round;stroke-linejoin:round;stroke-miterlimit:4;stroke-dasharray:none;stroke-opacity:1"
     id="g58399"
     transform="matrix(-1,0,0,1,66166.131,14571.814)" />
  <g
     style="fill:#ffffff;fill-opacity:1;stroke:#0000ff;stroke-width:39.37007904;stroke-linecap:round;stroke-linejoin:round;stroke-miterlimit:4;stroke-dasharray:none;stroke-opacity:1"
     id="g58405"
     transform="matrix(-1,0,0,1,66166.131,14571.814)" />
  <g
     style="fill:#000000;fill-opacity:1;stroke:#0000ff;stroke-width:39.37007904;stroke-linecap:round;stroke-linejoin:round;stroke-miterlimit:4;stroke-dasharray:none;stroke-opacity:1"
     id="g58407"
     transform="matrix(-1,0,0,1,66166.131,14571.814)" />
  <g
     style="fill:#c2c200;fill-opacity:1;stroke:#0000ff;stroke-width:39.37007904;stroke-linecap:round;stroke-linejoin:round;stroke-miterlimit:4;stroke-dasharray:none;stroke-opacity:1"
     id="g58409"
     transform="matrix(-1,0,0,1,66166.131,14571.814)" />
  <g
     style="fill:#c2c200;fill-opacity:1;stroke:#0000ff;stroke-width:39.37007904;stroke-linecap:round;stroke-linejoin:round;stroke-miterlimit:4;stroke-dasharray:none;stroke-opacity:1"
     id="g58411"
     transform="matrix(-1,0,0,1,66166.131,14571.814)" />
  <g
     transform="matrix(-1,0,0,1,44512.529,14571.814)"
     style="fill:none;fill-opacity:1;stroke:#fe0000;stroke-width:39.37007904;stroke-linecap:round;stroke-linejoin:round;stroke-miterlimit:4;stroke-dasharray:none;stroke-opacity:1"
     id="g58235-0-7-42" />
  <g
     transform="matrix(-1,0,0,1,44512.529,30713.515)"
     style="fill:none;fill-opacity:1;stroke:#fe0000;stroke-width:39.37007904;stroke-linecap:round;stroke-linejoin:round;stroke-miterlimit:4;stroke-dasharray:none;stroke-opacity:1"
     id="g58235-0-7-41" />
  <g
     transform="matrix(-1,0,0,1,66166.131,30713.515)"
     style="fill:none;fill-opacity:1;stroke:#fe0000;stroke-width:39.37007904;stroke-linecap:round;stroke-linejoin:round;stroke-miterlimit:4;stroke-dasharray:none;stroke-opacity:1"
     id="g58235-0-7-9" />
  <g
     id="g58890-9"
     transform="matrix(-1,0,0,1,52339.655,-2903.0136)">
    <path
       inkscape:connector-curvature="0"
       id="path58527-1-47-9"
       d="M 28520.822,4143.7708 A 925.19697,925.19697 0 0 0 27595.733,5068.8599 925.19697,925.19697 0 0 0 28520.822,5994.154 925.19697,925.19697 0 0 0 29446.115,5068.8599 925.19697,925.19697 0 0 0 28520.822,4143.7708 Z M 28520.822,4537.4479 A 531.49616,531.49616 0 0 1 29052.439,5068.8599 531.49616,531.49616 0 0 1 28520.822,5600.477 531.49616,531.49616 0 0 1 27989.41,5068.8599 531.49616,531.49616 0 0 1 28520.822,4537.4479 Z"
       style="opacity:1;fill:#000000;fill-opacity:1;fill-rule:nonzero;stroke:none;stroke-width:39.37008286;stroke-linecap:butt;stroke-linejoin:round;stroke-miterlimit:4;stroke-dasharray:none;stroke-dashoffset:0;stroke-opacity:1;paint-order:normal" />
    <g
       id="g58235-0-7-4-9-4"
       style="fill:none;fill-opacity:1;stroke:#fe0000;stroke-width:39.37007904;stroke-linecap:round;stroke-linejoin:round;stroke-miterlimit:4;stroke-dasharray:none;stroke-opacity:1"
       transform="translate(-14195.579,-24458.642)">
      <path
         style="fill:none;stroke:#fe0000;stroke-width:0.37795275;stroke-miterlimit:4;stroke-dasharray:none;stroke-opacity:1"
         d="M 385.93555,379.77734 C 385.93554,381.23081 386.51327,382.62458 387.54102,383.65234 388.56879,384.6801 389.96256,385.25978 391.41602,385.25977 L 629.52539,385.25781 C 630.97886,385.25781 632.37262,384.6801 633.40039,383.65234 634.42815,382.62458 635.00586,381.23081 635.00586,379.77734 V 194.58008 C 635.00586,193.12661 634.42815,191.73284 633.40039,190.70508 632.37262,189.67732 630.97886,189.09961 629.52539,189.09961 H 391.41602 C 389.96256,189.09961 388.56879,189.67732 387.54102,190.70508 386.51327,191.73284 385.93555,193.12661 385.93555,194.58008 M 406.53516,204.60156 C 409.35326,204.60092 411.63823,206.88503 411.63867,209.70312 411.63823,212.52122 409.35326,214.80533 406.53516,214.80469 403.71784,214.80425 401.43403,212.52045 401.43359,209.70312 401.43403,206.8858 403.71784,204.602 406.53516,204.60156 Z M 614.41016,204.60156 C 617.22749,204.602 619.51128,206.8858 619.51172,209.70312 619.51128,212.52046 617.2275,214.80425 614.41016,214.80469 611.59284,214.80425 609.30903,212.52045 609.30859,209.70312 609.30903,206.8858 611.59284,204.602 614.41016,204.60156 Z M 499.32227,347.46484 H 533.33789 V 366.36133 H 499.32227 Z M 406.53516,359.56055 C 409.35402,359.55991 411.6393,361.8452 411.63867,364.66406 411.63823,367.48216 409.35326,369.76626 406.53516,369.76562 403.71784,369.76519 401.43403,367.48139 401.43359,364.66406 401.43296,361.84597 403.71708,359.56099 406.53516,359.56055 Z M 614.41016,359.56055 C 617.22826,359.56099 619.51235,361.84596 619.51172,364.66406 619.51128,367.48139 617.22749,369.76519 614.41016,369.76562 611.59284,369.76519 609.30903,367.48139 609.30859,364.66406 609.30796,361.84597 611.59208,359.56099 614.41016,359.56055 Z"
         transform="matrix(104.16667,0,0,104.16667,369.103,7683.464)"
         id="circle58233-2-43-6-3-5"
         inkscape:connector-curvature="0"
         sodipodi:nodetypes="cccccsscssccccccccccccccccccccccccccc" />
    </g>
    <path
       inkscape:connector-curvature="0"
       id="path58527-9-9-9"
       d="M 50174.425,4143.7719 A 925.19697,925.19697 0 0 0 49249.336,5068.8609 925.19697,925.19697 0 0 0 50174.425,5994.154 925.19697,925.19697 0 0 0 51099.718,5068.8609 925.19697,925.19697 0 0 0 50174.425,4143.7719 Z M 50174.425,4537.4489 A 531.49616,531.49616 0 0 1 50706.042,5068.8609 531.49616,531.49616 0 0 1 50174.425,5600.477 531.49616,531.49616 0 0 1 49643.013,5068.8609 531.49616,531.49616 0 0 1 50174.425,4537.4489 Z"
       style="opacity:1;fill:#000000;fill-opacity:1;fill-rule:nonzero;stroke:none;stroke-width:39.37008286;stroke-linecap:butt;stroke-linejoin:round;stroke-miterlimit:4;stroke-dasharray:none;stroke-dashoffset:0;stroke-opacity:1;paint-order:normal" />
    <path
       inkscape:connector-curvature="0"
       id="path58527-6-2-3"
       d="M 50174.425,20285.473 A 925.19697,925.19697 0 0 0 49249.336,21210.562 925.19697,925.19697 0 0 0 50174.425,22135.856 925.19697,925.19697 0 0 0 51099.718,21210.562 925.19697,925.19697 0 0 0 50174.425,20285.473 Z M 50174.425,20679.15 A 531.49616,531.49616 0 0 1 50706.042,21210.562 531.49616,531.49616 0 0 1 50174.425,21742.179 531.49616,531.49616 0 0 1 49643.013,21210.562 531.49616,531.49616 0 0 1 50174.425,20679.15 Z"
       style="opacity:1;fill:#000000;fill-opacity:1;fill-rule:nonzero;stroke:none;stroke-width:39.37008286;stroke-linecap:butt;stroke-linejoin:round;stroke-miterlimit:4;stroke-dasharray:none;stroke-dashoffset:0;stroke-opacity:1;paint-order:normal" />
    <path
       inkscape:connector-curvature="0"
       id="path58527-8-8-5"
       d="M 28520.822,20285.473 A 925.19697,925.19697 0 0 0 27595.733,21210.562 925.19697,925.19697 0 0 0 28520.822,22135.856 925.19697,925.19697 0 0 0 29446.116,21210.562 925.19697,925.19697 0 0 0 28520.822,20285.473 Z M 28520.822,20679.15 A 531.49616,531.49616 0 0 1 29052.44,21210.562 531.49616,531.49616 0 0 1 28520.822,21742.179 531.49616,531.49616 0 0 1 27989.41,21210.562 531.49616,531.49616 0 0 1 28520.822,20679.15 Z"
       style="opacity:1;fill:#000000;fill-opacity:1;fill-rule:nonzero;stroke:none;stroke-width:39.37008286;stroke-linecap:butt;stroke-linejoin:round;stroke-miterlimit:4;stroke-dasharray:none;stroke-dashoffset:0;stroke-opacity:1;paint-order:normal" />
  </g>
  <g
     transform="matrix(-1,0,0,1,78284.361,-2903.0136)"
     id="g58890-5-8">
    <path
       inkscape:connector-curvature="0"
       id="path58527-1-47-4-2"
       d="m 28520.822,4143.7708 a 925.19697,925.19697 0 0 0 -925.089,925.0891 925.19697,925.19697 0 0 0 925.089,925.2941 925.19697,925.19697 0 0 0 925.293,-925.2941 925.19697,925.19697 0 0 0 -925.293,-925.0891 z m 0,393.6771 a 531.49616,531.49616 0 0 1 531.617,531.412 531.49616,531.49616 0 0 1 -531.617,531.6171 531.49616,531.49616 0 0 1 -531.412,-531.6171 531.49616,531.49616 0 0 1 531.412,-531.412 z"
       style="opacity:1;fill:#000000;fill-opacity:1;fill-rule:nonzero;stroke:none;stroke-width:39.3701;stroke-linecap:butt;stroke-linejoin:round;stroke-miterlimit:4;stroke-dasharray:none;stroke-dashoffset:0;stroke-opacity:1;paint-order:normal" />
    <g
       id="g58235-0-7-4-9-9-5"
       style="fill:none;fill-opacity:1;stroke:#fe0000;stroke-width:39.3701;stroke-linecap:round;stroke-linejoin:round;stroke-miterlimit:4;stroke-dasharray:none;stroke-opacity:1"
       transform="translate(-14195.579,-24458.642)">
      <path
         style="fill:none;stroke:#fe0000;stroke-width:0.377953;stroke-miterlimit:4;stroke-dasharray:none;stroke-opacity:1"
         d="m 380.45508,189.09961 -238.10938,0.002 c -1.45346,1e-5 -2.84723,0.57576 -3.875,1.60352 -1.02775,1.02776 -1.60547,2.42153 -1.60547,3.875 v 185.19726 c 0,1.45347 0.57772,2.84724 1.60547,3.875 1.02777,1.02776 2.42154,1.60547 3.875,1.60547 h 238.10938 c 1.45347,0 2.84723,-0.57771 3.875,-1.60547 1.02776,-1.02776 1.60547,-2.42153 1.60547,-3.875 l 0.002,-185.19726 c 0,-1.45347 -0.57966,-2.84724 -1.60742,-3.875 -1.02777,-1.02776 -2.42153,-1.60548 -3.875,-1.60547 z m -222.99024,15.50195 c 2.8181,-6.4e-4 5.10308,2.28347 5.10352,5.10156 -4.4e-4,2.8181 -2.28542,5.10221 -5.10352,5.10157 -2.81732,-4.4e-4 -5.10112,-2.28424 -5.10156,-5.10157 4.4e-4,-2.81732 2.28424,-5.10112 5.10156,-5.10156 z m 207.875,0 c 2.81733,4.4e-4 5.10113,2.28424 5.10157,5.10156 -4.4e-4,2.81734 -2.28423,5.10113 -5.10157,5.10157 -2.81732,-4.4e-4 -5.10112,-2.28424 -5.10156,-5.10157 4.4e-4,-2.81732 2.28424,-5.10112 5.10156,-5.10156 z m -164.22265,37.41406 h 147.02253 v 52.91211 H 201.11719 Z m -43.65235,117.54493 c 2.81886,-6.4e-4 5.10415,2.28465 5.10352,5.10351 -4.4e-4,2.8181 -2.28542,5.1022 -5.10352,5.10156 -2.81732,-4.3e-4 -5.10112,-2.28423 -5.10156,-5.10156 -6.3e-4,-2.81809 2.28348,-5.10307 5.10156,-5.10351 z m 207.875,0 c 2.8181,4.4e-4 5.1022,2.28541 5.10157,5.10351 -4.4e-4,2.81733 -2.28424,5.10113 -5.10157,5.10156 -2.81732,-4.3e-4 -5.10112,-2.28423 -5.10156,-5.10156 -6.3e-4,-2.81809 2.28348,-5.10307 5.10156,-5.10351 z"
         transform="matrix(104.16667,0,0,104.16667,26313.809,7683.464)"
         id="circle58233-2-43-6-3-2-3"
         inkscape:connector-curvature="0"
         sodipodi:nodetypes="ccsssssssccsscccccccccccccccccccccccccc" />
    </g>
    <path
       inkscape:connector-curvature="0"
       id="path58527-9-9-5-4"
       d="m 50174.425,4143.7719 a 925.19697,925.19697 0 0 0 -925.089,925.089 925.19697,925.19697 0 0 0 925.089,925.2931 925.19697,925.19697 0 0 0 925.293,-925.2931 925.19697,925.19697 0 0 0 -925.293,-925.089 z m 0,393.677 a 531.49616,531.49616 0 0 1 531.617,531.412 531.49616,531.49616 0 0 1 -531.617,531.6161 531.49616,531.49616 0 0 1 -531.412,-531.6161 531.49616,531.49616 0 0 1 531.412,-531.412 z"
       style="opacity:1;fill:#000000;fill-opacity:1;fill-rule:nonzero;stroke:none;stroke-width:39.3701;stroke-linecap:butt;stroke-linejoin:round;stroke-miterlimit:4;stroke-dasharray:none;stroke-dashoffset:0;stroke-opacity:1;paint-order:normal" />
    <path
       inkscape:connector-curvature="0"
       id="path58527-6-2-7-9"
       d="m 50174.425,20285.473 a 925.19697,925.19697 0 0 0 -925.089,925.089 925.19697,925.19697 0 0 0 925.089,925.294 925.19697,925.19697 0 0 0 925.293,-925.294 925.19697,925.19697 0 0 0 -925.293,-925.089 z m 0,393.677 a 531.49616,531.49616 0 0 1 531.617,531.412 531.49616,531.49616 0 0 1 -531.617,531.617 531.49616,531.49616 0 0 1 -531.412,-531.617 531.49616,531.49616 0 0 1 531.412,-531.412 z"
       style="opacity:1;fill:#000000;fill-opacity:1;fill-rule:nonzero;stroke:none;stroke-width:39.3701;stroke-linecap:butt;stroke-linejoin:round;stroke-miterlimit:4;stroke-dasharray:none;stroke-dashoffset:0;stroke-opacity:1;paint-order:normal" />
    <path
       inkscape:connector-curvature="0"
       id="path58527-8-8-4-0"
       d="m 28520.822,20285.473 a 925.19697,925.19697 0 0 0 -925.089,925.089 925.19697,925.19697 0 0 0 925.089,925.294 925.19697,925.19697 0 0 0 925.294,-925.294 925.19697,925.19697 0 0 0 -925.294,-925.089 z m 0,393.677 a 531.49616,531.49616 0 0 1 531.618,531.412 531.49616,531.49616 0 0 1 -531.618,531.617 531.49616,531.49616 0 0 1 -531.412,-531.617 531.49616,531.49616 0 0 1 531.412,-531.412 z"
       style="opacity:1;fill:#000000;fill-opacity:1;fill-rule:nonzero;stroke:none;stroke-width:39.3701;stroke-linecap:butt;stroke-linejoin:round;stroke-miterlimit:4;stroke-dasharray:none;stroke-dashoffset:0;stroke-opacity:1;paint-order:normal" />
  </g>
  <path
     style="opacity:1;fill:none;fill-opacity:1;fill-rule:nonzero;stroke:#ff0000;stroke-width:39.37008286;stroke-linecap:butt;stroke-linejoin:round;stroke-miterlimit:4;stroke-dasharray:none;stroke-dashoffset:0;stroke-opacity:1;paint-order:normal"
     d="M 25964.565,5456.1354 H 16909.388 V 15728.577 H 25964.565"
     id="rect59231-8"
     inkscape:connector-curvature="0"
     sodipodi:nodetypes="cccc" />
</svg>
